.........
----------------------------------------------------------------------
Ran 9 tests in 0.002s

OK
Name               Stmts   Miss Branch BrPart  Cover   Missing
--------------------------------------------------------------
Diplomacy.py          83      3     44      2    94%   65->68, 68, 108->109, 109-110
TestDiplomacy.py      50      0      2      1    98%   78->exit
--------------------------------------------------------------
TOTAL                133      3     46      3    96%
