...
----------------------------------------------------------------------
Ran 3 tests in 0.001s

OK
Name               Stmts   Miss Branch BrPart  Cover   Missing
--------------------------------------------------------------
Diplomacy.py          49      0     34      0   100%
TestDiplomacy.py      19      0      0      0   100%
--------------------------------------------------------------
TOTAL                 68      0     34      0   100%
