.......
----------------------------------------------------------------------
Ran 7 tests in 0.003s

OK
Name               Stmts   Miss Branch BrPart  Cover   Missing
--------------------------------------------------------------
Diplomacy.py          84      0     52      0   100%
TestDiplomacy.py      39      0      0      0   100%
--------------------------------------------------------------
TOTAL                123      0     52      0   100%
