...............
----------------------------------------------------------------------
Ran 15 tests in 0.003s

OK
Name               Stmts   Miss Branch BrPart  Cover   Missing
--------------------------------------------------------------
Diplomacy.py          56      0     36      0   100%
TestDiplomacy.py      75      0      0      0   100%
--------------------------------------------------------------
TOTAL                131      0     36      0   100%
